{
  "components": [
    {
      "data": {
        "contents_checksum": "0b4e9d8e6394dc841aece07ca4da91920a460cbd7ec22495be4a2b4f46635b4d",
        "source": "",
        "type": "tar"
      },
      "dependencies": [
        "core"
      ],
      "details": {
        "description": "Beta version of gcloud commands.",
        "display_name": "gcloud Beta Commands"
      },
      "id": "beta",
      "is_configuration": false,
      "is_hidden": false,
      "is_required": false,
      "platform": {},
      "platform_required": false,
      "version": {
        "build_number": 20221205224721,
        "version_string": "2022.12.05"
      }
    }
  ],
  "revision": 20221205224721,
  "schema_version": {
    "no_update": false,
    "url": "https://dl.google.com/dl/cloudsdk/channels/rapid/google-cloud-sdk.tar.gz",
    "version": 3
  },
  "version": "411.0.0"
}