{
  "components": [
    {
      "data": {
        "contents_checksum": "c27a1e54bd9a2e2a7005fc771294fadd88850b3f7f69ee9bc239a1468eb0f79b",
        "source": "",
        "type": "tar"
      },
      "dependencies": [
        "bq",
        "core"
      ],
      "details": {
        "description": "Provides the bq tool for interacting with the BigQuery service.",
        "display_name": "BigQuery Command Line Tool (Platform Specific)"
      },
      "id": "bq-nix",
      "is_configuration": false,
      "is_hidden": true,
      "is_required": false,
      "platform": {
        "operating_systems": [
          "CYGWIN",
          "LINUX",
          "MACOSX",
          "MSYS"
        ]
      },
      "platform_required": false,
      "version": {
        "build_number": 20221205224721,
        "version_string": "2.0.83"
      }
    }
  ],
  "revision": 20221205224721,
  "schema_version": {
    "no_update": false,
    "url": "https://dl.google.com/dl/cloudsdk/channels/rapid/google-cloud-sdk.tar.gz",
    "version": 3
  },
  "version": "411.0.0"
}