{
  "components": [
    {
      "dependencies": [
        "bundled-python3-unix-linux-x86_64",
        "core"
      ],
      "details": {
        "description": "Provides stand-alone Python 3.9.12 installation for UNIX.",
        "display_name": "Bundled Python 3.9"
      },
      "id": "bundled-python3-unix",
      "is_configuration": false,
      "is_hidden": false,
      "is_required": false,
      "platform": {
        "architectures": [
          "x86_64"
        ],
        "operating_systems": [
          "LINUX"
        ]
      },
      "platform_required": false,
      "version": {
        "build_number": 0,
        "version_string": "3.9.12"
      }
    }
  ],
  "revision": 20221205224721,
  "schema_version": {
    "no_update": false,
    "url": "https://dl.google.com/dl/cloudsdk/channels/rapid/google-cloud-sdk.tar.gz",
    "version": 3
  },
  "version": "411.0.0"
}